{
  "wtest_1": {
    "active": true,
    "author": "4F6039E3-0115-4FC9-A78E-444940538847",
    "created": {
      ".sv": "timestamp"
    },
    "modified": {
      ".sv": "timestamp"
    },
    "location": [
      44.9778,
      -93.265
    ],
    "placeTypes": [
      "night_club",
      "bar",
      "museum"
    ],
    "radius": 20000
  },
  "wtest_2": {
    "active": true,
    "author": "4F6039E3-0115-4FC9-A78E-444940538847",
    "created": {
      ".sv": "timestamp"
    },
    "modified": {
      ".sv": "timestamp"
    },
    "location": [
      44.9778,
      -93.265
    ],
    "placeTypes": [
      "restaurant",
      "bar",
      "zoo"
    ],
    "radius": 20000
  }
}
